EESchema Schematic File Version 4
LIBS:decoder-cache
EELAYER 26 0
EELAYER END
$Descr A4 11693 8268
encoding utf-8
Sheet 1 1
Title "IR Receiver"
Date "2017-03-21"
Rev "1.0"
Comp "ECE 445"
Comment1 ""
Comment2 ""
Comment3 ""
Comment4 ""
$EndDescr
$Comp
L bcan:TSOP57238 U2
U 1 1 58D689A4
P 5800 3600
F 0 "U2" H 5550 3950 60  0000 C CNN
F 1 "TSOP57238" H 5900 3950 60  0000 C CNN
F 2 "bcan:TSOP572xx" H 5750 4050 60  0001 C CNN
F 3 "" H 5750 4050 60  0001 C CNN
	1    5800 3600
	1    0    0    -1  
$EndComp
$Comp
L bcan:TSOP57238 U3
U 1 1 58D6939D
P 5800 4500
F 0 "U3" H 5550 4850 60  0000 C CNN
F 1 "TSOP57238" H 5900 4850 60  0000 C CNN
F 2 "bcan:TSOP572xx" H 5750 4950 60  0001 C CNN
F 3 "" H 5750 4950 60  0001 C CNN
	1    5800 4500
	1    0    0    -1  
$EndComp
Wire Wire Line
	6200 3400 6300 3400
Wire Wire Line
	6300 3400 6300 3800
Wire Wire Line
	6300 3800 6200 3800
Wire Wire Line
	6300 4300 6200 4300
Connection ~ 6300 3800
Wire Wire Line
	6300 4700 6200 4700
Connection ~ 6300 4300
$Comp
L power:GND #PWR01
U 1 1 58D69413
P 6300 4800
F 0 "#PWR01" H 6300 4550 50  0001 C CNN
F 1 "GND" H 6300 4650 50  0000 C CNN
F 2 "" H 6300 4800 50  0001 C CNN
F 3 "" H 6300 4800 50  0001 C CNN
	1    6300 4800
	1    0    0    -1  
$EndComp
Connection ~ 6300 4700
$Comp
L power:+2V8 #PWR02
U 1 1 58D69437
P 5300 3300
F 0 "#PWR02" H 5300 3150 50  0001 C CNN
F 1 "+2V8" H 5300 3440 50  0000 C CNN
F 2 "" H 5300 3300 50  0001 C CNN
F 3 "" H 5300 3300 50  0001 C CNN
	1    5300 3300
	1    0    0    -1  
$EndComp
Wire Wire Line
	5400 3800 5300 3800
Wire Wire Line
	5300 3300 5300 3800
Wire Wire Line
	5300 4700 5400 4700
Connection ~ 5300 3800
Wire Wire Line
	5400 3400 5000 3400
Wire Wire Line
	5400 4300 5000 4300
Text Label 5000 3400 0    60   ~ 0
IR_R
Text Label 5000 4300 0    60   ~ 0
IR_L
$Comp
L decoder-rescue:LED_Small D1
U 1 1 5A3F4EE8
P 4300 3650
F 0 "D1" H 4250 3775 50  0000 L CNN
F 1 "LED_Small" H 4125 3550 50  0000 L CNN
F 2 "LEDs:LED_0603" V 4300 3650 50  0001 C CNN
F 3 "" V 4300 3650 50  0001 C CNN
	1    4300 3650
	1    0    0    -1  
$EndComp
$Comp
L decoder-rescue:LED_Small D2
U 1 1 5A3F5011
P 4300 4000
F 0 "D2" H 4250 4125 50  0000 L CNN
F 1 "LED_Small" H 4125 3900 50  0000 L CNN
F 2 "LEDs:LED_0603" V 4300 4000 50  0001 C CNN
F 3 "" V 4300 4000 50  0001 C CNN
	1    4300 4000
	1    0    0    -1  
$EndComp
$Comp
L decoder-rescue:STM32L433CxTx_Ux U1
U 1 1 5A541DD0
P 2450 4100
F 0 "U1" H 1450 5825 50  0000 L BNN
F 1 "STM32L433CxTx/Ux" H 3450 5825 50  0000 R BNN
F 2 "Housings_DFN_QFN:QFN-48-1EP_7x7mm_Pitch0.5mm" H 3450 5775 50  0001 R TNN
F 3 "" H 2450 4100 50  0001 C CNN
	1    2450 4100
	1    0    0    -1  
$EndComp
Wire Wire Line
	2250 5900 2250 6000
Wire Wire Line
	2250 6000 2350 6000
Wire Wire Line
	2650 6000 2650 5900
Wire Wire Line
	2450 5900 2450 6000
Connection ~ 2450 6000
Wire Wire Line
	2350 5900 2350 6000
Connection ~ 2350 6000
Wire Wire Line
	2550 5900 2550 6000
Connection ~ 2550 6000
$Comp
L power:GND #PWR03
U 1 1 5A5421BF
P 2450 6100
F 0 "#PWR03" H 2450 5850 50  0001 C CNN
F 1 "GND" H 2450 5950 50  0000 C CNN
F 2 "" H 2450 6100 50  0001 C CNN
F 3 "" H 2450 6100 50  0001 C CNN
	1    2450 6100
	1    0    0    -1  
$EndComp
$Comp
L decoder-rescue:Ferrite_Bead_Small L1
U 1 1 5A54222D
P 3100 2050
F 0 "L1" H 3175 2100 50  0000 L CNN
F 1 "Ferrite_Bead_Small" H 3175 2000 50  0000 L CNN
F 2 "" V 3030 2050 50  0001 C CNN
F 3 "" H 3100 2050 50  0001 C CNN
	1    3100 2050
	1    0    0    -1  
$EndComp
Wire Wire Line
	6300 3800 6300 4300
Wire Wire Line
	6300 4300 6300 4700
Wire Wire Line
	6300 4700 6300 4800
Wire Wire Line
	5300 3800 5300 4700
Wire Wire Line
	2450 6000 2550 6000
Wire Wire Line
	2450 6000 2450 6100
Wire Wire Line
	2350 6000 2450 6000
Wire Wire Line
	2550 6000 2650 6000
$EndSCHEMATC
