EESchema Schematic File Version 2
LIBS:beacon-rescue
LIBS:power
LIBS:device
LIBS:transistors
LIBS:conn
LIBS:linear
LIBS:regul
LIBS:74xx
LIBS:cmos4000
LIBS:adc-dac
LIBS:memory
LIBS:xilinx
LIBS:microcontrollers
LIBS:dsp
LIBS:microchip
LIBS:analog_switches
LIBS:motorola
LIBS:texas
LIBS:intel
LIBS:audio
LIBS:interface
LIBS:digital-audio
LIBS:philips
LIBS:display
LIBS:cypress
LIBS:siliconi
LIBS:opto
LIBS:contrib
LIBS:valves
LIBS:bcan
LIBS:beacon-cache
EELAYER 25 0
EELAYER END
$Descr A4 11693 8268
encoding utf-8
Sheet 1 1
Title "IR Beacon Board"
Date "2017-05-02"
Rev "2.0"
Comp "ECE 445"
Comment1 ""
Comment2 ""
Comment3 ""
Comment4 ""
$EndDescr
$Comp
L D_Bridge_-AA+ D2
U 1 1 58916D19
P 6100 4600
F 0 "D2" V 6350 4600 50  0000 R CNN
F 1 "BAS4002A" V 5850 4600 50  0000 R CNN
F 2 "TO_SOT_Packages_SMD:SOT-143" H 6100 4600 50  0001 C CNN
F 3 "" H 6100 4600 50  0000 C CNN
	1    6100 4600
	0    -1   -1   0   
$EndComp
$Comp
L GND #PWR01
U 1 1 58919FC5
P 7300 5000
F 0 "#PWR01" H 7300 4750 50  0001 C CNN
F 1 "GND" H 7300 4850 50  0000 C CNN
F 2 "" H 7300 5000 50  0000 C CNN
F 3 "" H 7300 5000 50  0000 C CNN
	1    7300 5000
	1    0    0    -1  
$EndComp
Text Label 4700 3000 0    60   ~ 0
~RST
Text Notes 3650 3550 0    120  ~ 0
Control
Text Notes 5550 5250 0    120  ~ 0
Power
Text Notes 3650 6150 0    120  ~ 0
IR LED
Text Notes 5550 6150 0    120  ~ 0
Connectors
$Comp
L GND #PWR02
U 1 1 58C62B36
P 7300 5900
F 0 "#PWR02" H 7300 5650 50  0001 C CNN
F 1 "GND" H 7300 5750 50  0000 C CNN
F 2 "" H 7300 5900 50  0001 C CNN
F 3 "" H 7300 5900 50  0001 C CNN
	1    7300 5900
	1    0    0    -1  
$EndComp
Text Label 6400 5900 0    60   ~ 0
~RST
Text Label 6500 4600 1    60   ~ 0
RAIL_R
Text Label 5700 4600 1    60   ~ 0
RAIL_L
$Comp
L VCC #PWR03
U 1 1 58D18C7E
P 6800 4100
F 0 "#PWR03" H 6800 3950 50  0001 C CNN
F 1 "VCC" H 6800 4250 50  0000 C CNN
F 2 "" H 6800 4100 50  0001 C CNN
F 3 "" H 6800 4100 50  0001 C CNN
	1    6800 4100
	1    0    0    -1  
$EndComp
$Comp
L C_Small C2
U 1 1 59017D8B
P 6600 4600
F 0 "C2" H 6610 4670 50  0000 L CNN
F 1 "10u" H 6610 4520 50  0000 L CNN
F 2 "Capacitors_SMD:C_0805" H 6600 4600 50  0001 C CNN
F 3 "" H 6600 4600 50  0001 C CNN
	1    6600 4600
	1    0    0    -1  
$EndComp
$Comp
L C_Small C4
U 1 1 59017DF4
P 8000 4600
F 0 "C4" H 8010 4670 50  0000 L CNN
F 1 "22u" H 8010 4520 50  0000 L CNN
F 2 "Capacitors_SMD:C_0805" H 8000 4600 50  0001 C CNN
F 3 "" H 8000 4600 50  0001 C CNN
	1    8000 4600
	1    0    0    -1  
$EndComp
$Comp
L CONN_01X01 J2
U 1 1 5901811B
P 5700 4000
F 0 "J2" H 5700 4100 50  0000 C CNN
F 1 "L" V 5800 4000 50  0000 C CNN
F 2 "bcan:Pad_Length10mm_Width3.5mm" H 5700 4000 50  0001 C CNN
F 3 "" H 5700 4000 50  0001 C CNN
	1    5700 4000
	0    -1   -1   0   
$EndComp
$Comp
L CONN_01X01 J1
U 1 1 5901817D
P 6500 4000
F 0 "J1" H 6500 4100 50  0000 C CNN
F 1 "R" V 6600 4000 50  0000 C CNN
F 2 "bcan:Pad_Length10mm_Width3.5mm" H 6500 4000 50  0001 C CNN
F 3 "" H 6500 4000 50  0001 C CNN
	1    6500 4000
	0    -1   -1   0   
$EndComp
$Comp
L R_Small R1
U 1 1 59018AF1
P 4500 2800
F 0 "R1" H 4530 2820 50  0000 L CNN
F 1 "10k" H 4530 2760 50  0000 L CNN
F 2 "Resistors_SMD:R_0603" H 4500 2800 50  0001 C CNN
F 3 "" H 4500 2800 50  0001 C CNN
	1    4500 2800
	1    0    0    -1  
$EndComp
$Comp
L GND #PWR04
U 1 1 59029F1D
P 7300 3000
F 0 "#PWR04" H 7300 2750 50  0001 C CNN
F 1 "GND" H 7300 2850 50  0000 C CNN
F 2 "" H 7300 3000 50  0000 C CNN
F 3 "" H 7300 3000 50  0000 C CNN
	1    7300 3000
	1    0    0    -1  
$EndComp
Text Label 4700 2700 0    60   ~ 0
PB0
Text Label 4700 2800 0    60   ~ 0
PB1
Text Label 4700 2900 0    60   ~ 0
PB2
Text Label 6000 5700 0    60   ~ 0
TPIDATA
Text Label 6000 5800 0    60   ~ 0
TPICLK
Text Label 7300 5800 2    60   ~ 0
PB2
$Comp
L R_Small R3
U 1 1 5902BB8D
P 4300 5100
F 0 "R3" H 4330 5120 50  0000 L CNN
F 1 "1M" H 4330 5060 50  0000 L CNN
F 2 "Resistors_SMD:R_0603" H 4300 5100 50  0001 C CNN
F 3 "" H 4300 5100 50  0001 C CNN
	1    4300 5100
	1    0    0    -1  
$EndComp
$Comp
L R_Small R2
U 1 1 5902BC3D
P 4200 4700
F 0 "R2" H 4230 4720 50  0000 L CNN
F 1 "150" H 4230 4660 50  0000 L CNN
F 2 "Resistors_SMD:R_0603" H 4200 4700 50  0001 C CNN
F 3 "" H 4200 4700 50  0001 C CNN
	1    4200 4700
	1    0    0    -1  
$EndComp
Text Label 6400 5700 0    60   ~ 0
PB0
Text Label 6400 5800 0    60   ~ 0
PB1
Text Label 4200 5500 1    60   ~ 0
PB0
$Comp
L +5V #PWR05
U 1 1 5A36108F
P 4200 4600
F 0 "#PWR05" H 4200 4450 50  0001 C CNN
F 1 "+5V" H 4200 4740 50  0000 C CNN
F 2 "" H 4200 4600 50  0001 C CNN
F 3 "" H 4200 4600 50  0001 C CNN
	1    4200 4600
	1    0    0    -1  
$EndComp
$Comp
L +5V #PWR06
U 1 1 5A36146C
P 4500 2700
F 0 "#PWR06" H 4500 2550 50  0001 C CNN
F 1 "+5V" H 4500 2840 50  0000 C CNN
F 2 "" H 4500 2700 50  0001 C CNN
F 3 "" H 4500 2700 50  0001 C CNN
	1    4500 2700
	1    0    0    -1  
$EndComp
$Comp
L +5V #PWR07
U 1 1 5A361592
P 7300 2700
F 0 "#PWR07" H 7300 2550 50  0001 C CNN
F 1 "+5V" H 7300 2840 50  0000 C CNN
F 2 "" H 7300 2700 50  0001 C CNN
F 3 "" H 7300 2700 50  0001 C CNN
	1    7300 2700
	1    0    0    -1  
$EndComp
$Comp
L +5V #PWR08
U 1 1 5A36166A
P 8000 4100
F 0 "#PWR08" H 8000 3950 50  0001 C CNN
F 1 "+5V" H 8000 4240 50  0000 C CNN
F 2 "" H 8000 4100 50  0001 C CNN
F 3 "" H 8000 4100 50  0001 C CNN
	1    8000 4100
	1    0    0    -1  
$EndComp
$Comp
L +5V #PWR09
U 1 1 5A3616E2
P 7300 5700
F 0 "#PWR09" H 7300 5550 50  0001 C CNN
F 1 "+5V" H 7300 5840 50  0000 C CNN
F 2 "" H 7300 5700 50  0001 C CNN
F 3 "" H 7300 5700 50  0001 C CNN
	1    7300 5700
	1    0    0    -1  
$EndComp
$Comp
L R_Small R4
U 1 1 5A361BBA
P 4700 4900
F 0 "R4" H 4730 4920 50  0000 L CNN
F 1 "2M7" H 4730 4860 50  0000 L CNN
F 2 "Resistors_SMD:R_0603" H 4700 4900 50  0001 C CNN
F 3 "" H 4700 4900 50  0001 C CNN
	1    4700 4900
	1    0    0    -1  
$EndComp
$Comp
L R_Small R5
U 1 1 5A361C49
P 4700 5300
F 0 "R5" H 4730 5320 50  0000 L CNN
F 1 "1M" H 4730 5260 50  0000 L CNN
F 2 "Resistors_SMD:R_0603" H 4700 5300 50  0001 C CNN
F 3 "" H 4700 5300 50  0001 C CNN
	1    4700 5300
	1    0    0    -1  
$EndComp
Text Label 4700 4500 3    60   ~ 0
RAIL_R
Text Label 4700 5200 1    60   ~ 0
PB1
$Comp
L GND #PWR010
U 1 1 5A361EA1
P 4700 5400
F 0 "#PWR010" H 4700 5150 50  0001 C CNN
F 1 "GND" H 4700 5250 50  0000 C CNN
F 2 "" H 4700 5400 50  0001 C CNN
F 3 "" H 4700 5400 50  0001 C CNN
	1    4700 5400
	1    0    0    -1  
$EndComp
$Comp
L TPS70950DBV U2
U 1 1 5A362228
P 7300 4400
F 0 "U2" H 7050 4650 60  0000 C CNN
F 1 "AP2204K-5.0" H 7500 4650 60  0000 C CNN
F 2 "TO_SOT_Packages_SMD:SOT-23-5" H 7300 4400 60  0001 C CNN
F 3 "" H 7300 4400 60  0001 C CNN
	1    7300 4400
	1    0    0    -1  
$EndComp
$Comp
L D_Zener_Small D3
U 1 1 5A39E902
P 6800 4400
F 0 "D3" H 6800 4490 50  0000 C CNN
F 1 "5V1" H 6800 4310 50  0000 C CNN
F 2 "Diodes_SMD:D_SOD-323" V 6800 4400 50  0001 C CNN
F 3 "" V 6800 4400 50  0001 C CNN
	1    6800 4400
	0    1    1    0   
$EndComp
$Comp
L CONN_02X03 J3
U 1 1 5A39F3E6
P 6850 5800
F 0 "J3" H 6850 6000 50  0000 C CNN
F 1 "TPI" H 6850 5600 50  0000 C CNN
F 2 "Pin_Headers:Pin_Header_Straight_2x03_Pitch2.54mm_SMD" H 6850 4600 50  0001 C CNN
F 3 "" H 6850 4600 50  0001 C CNN
	1    6850 5800
	1    0    0    -1  
$EndComp
$Comp
L R_Small R6
U 1 1 5A3A9B5C
P 6800 4700
F 0 "R6" H 6830 4720 50  0000 L CNN
F 1 "10M" H 6830 4660 50  0000 L CNN
F 2 "Resistors_SMD:R_0603" H 6800 4700 50  0001 C CNN
F 3 "" H 6800 4700 50  0001 C CNN
	1    6800 4700
	1    0    0    -1  
$EndComp
Wire Notes Line
	5500 6200 5500 5500
Wire Notes Line
	8200 6200 5500 6200
Wire Notes Line
	8200 5500 8200 6200
Wire Notes Line
	5500 5500 8200 5500
Connection ~ 8000 4300
Wire Wire Line
	8000 4100 8000 4500
Connection ~ 4200 4900
Wire Wire Line
	4200 4900 4200 4800
Wire Wire Line
	4100 4900 4300 4900
Wire Wire Line
	4100 5000 4100 4900
Wire Wire Line
	4100 5200 4100 5300
Wire Wire Line
	8000 4900 8000 4700
Connection ~ 6600 4900
Wire Wire Line
	6600 4900 6600 4700
Wire Wire Line
	7300 4700 7300 5000
Connection ~ 7300 4900
Wire Notes Line
	3600 6200 5300 6200
Wire Notes Line
	3600 3600 3600 2400
Wire Notes Line
	8200 2400 8200 3600
Wire Notes Line
	5500 5300 5500 3800
Wire Notes Line
	5500 3800 8200 3800
Wire Notes Line
	8200 3800 8200 5300
Wire Notes Line
	8200 5300 5500 5300
Wire Notes Line
	5300 6200 5300 3800
Wire Notes Line
	5300 3800 3600 3800
Wire Notes Line
	3600 3800 3600 6200
Wire Notes Line
	3600 2400 8200 2400
Wire Notes Line
	8200 3600 3600 3600
Wire Wire Line
	6100 4300 6900 4300
Wire Wire Line
	6600 4300 6600 4500
Connection ~ 6600 4300
Wire Wire Line
	6600 5900 6400 5900
Wire Wire Line
	6500 4200 6500 4600
Wire Wire Line
	6500 4600 6400 4600
Wire Wire Line
	5700 4200 5700 4600
Wire Wire Line
	5700 4600 5800 4600
Connection ~ 6800 4300
Wire Wire Line
	4900 2700 4700 2700
Wire Wire Line
	4900 2800 4700 2800
Wire Wire Line
	4900 2900 4700 2900
Wire Wire Line
	6900 2700 7300 2700
Wire Wire Line
	6900 3000 7300 3000
Wire Wire Line
	4900 3000 4500 3000
Wire Wire Line
	4500 2900 4500 3100
Wire Wire Line
	7100 5700 7300 5700
Wire Wire Line
	7100 5900 7300 5900
Wire Wire Line
	6600 5700 6000 5700
Wire Wire Line
	6600 5800 6000 5800
Wire Wire Line
	7100 5800 7300 5800
Wire Wire Line
	4100 5300 4300 5300
Wire Wire Line
	4200 5300 4200 5500
Connection ~ 4200 5300
Wire Wire Line
	4700 5000 4700 5200
Wire Wire Line
	4700 4800 4700 4500
Wire Wire Line
	6100 4900 8000 4900
Wire Wire Line
	7700 4300 8000 4300
Wire Wire Line
	6900 4500 6800 4500
Wire Wire Line
	6800 4500 6800 4600
Wire Wire Line
	6800 4800 6800 4900
Connection ~ 6800 4900
Connection ~ 6800 4500
$Comp
L LED_Small D1
U 1 1 5A3AA113
P 4100 5100
F 0 "D1" H 4050 5225 50  0000 L CNN
F 1 "940nm" H 3925 5000 50  0000 L CNN
F 2 "LEDs:LED_0603" V 4100 5100 50  0001 C CNN
F 3 "" V 4100 5100 50  0001 C CNN
	1    4100 5100
	0    -1   -1   0   
$EndComp
Wire Wire Line
	4300 5300 4300 5200
Wire Wire Line
	4300 4900 4300 5000
$Comp
L C_Small C1
U 1 1 5A3AA60F
P 4500 3200
F 0 "C1" H 4510 3270 50  0000 L CNN
F 1 "100n" H 4510 3120 50  0000 L CNN
F 2 "Capacitors_SMD:C_0603" H 4500 3200 50  0001 C CNN
F 3 "" H 4500 3200 50  0001 C CNN
	1    4500 3200
	1    0    0    -1  
$EndComp
$Comp
L ATTINY10-TS U1
U 1 1 5A3AA606
P 5900 2850
F 0 "U1" H 5100 3150 50  0000 C CNN
F 1 "ATTINY10-TS" H 6500 3150 50  0000 C CNN
F 2 "TO_SOT_Packages_SMD:SOT-23-6" H 5900 3150 50  0001 C CIN
F 3 "" H 5700 2850 50  0001 C CNN
	1    5900 2850
	1    0    0    -1  
$EndComp
Connection ~ 4500 3000
$Comp
L GND #PWR011
U 1 1 5A3AA82A
P 4500 3300
F 0 "#PWR011" H 4500 3050 50  0001 C CNN
F 1 "GND" H 4500 3150 50  0000 C CNN
F 2 "" H 4500 3300 50  0000 C CNN
F 3 "" H 4500 3300 50  0000 C CNN
	1    4500 3300
	1    0    0    -1  
$EndComp
$Comp
L C_Small C3
U 1 1 5A3AC460
P 7800 4600
F 0 "C3" H 7810 4670 50  0000 L CNN
F 1 "22u" H 7810 4520 50  0000 L CNN
F 2 "Capacitors_SMD:C_0805" H 7800 4600 50  0001 C CNN
F 3 "" H 7800 4600 50  0001 C CNN
	1    7800 4600
	1    0    0    -1  
$EndComp
Wire Wire Line
	6800 4300 6800 4100
Text Label 6900 4500 3    60   ~ 0
EN
Text Label 4100 5000 0    60   ~ 0
D1A
Wire Wire Line
	7800 4500 7800 4300
Connection ~ 7800 4300
Wire Wire Line
	7800 4700 7800 4900
Connection ~ 7800 4900
$EndSCHEMATC
