EESchema Schematic File Version 4
LIBS:beacon-cache
EELAYER 26 0
EELAYER END
$Descr A4 11693 8268
encoding utf-8
Sheet 1 1
Title "IR Beacon Board"
Date "2018-10-19"
Rev "0.4"
Comp "Jordi Pakey-Rodriguez"
Comment1 ""
Comment2 ""
Comment3 ""
Comment4 ""
$EndDescr
Text Notes 4150 4250 0    120  ~ 0
Control
Text Notes 4150 5750 0    120  ~ 0
Power
Text Notes 6950 5750 0    120  ~ 0
IR LED
Text Label 5200 5000 1    60   ~ 0
RAIL_R
Text Label 4400 5000 1    60   ~ 0
RAIL_L
Text Label 7200 5500 1    60   ~ 0
RA1
Text Label 7000 2800 3    60   ~ 0
RAIL_R
Text Label 6300 3300 2    60   ~ 0
RA3
Text Label 6300 3500 2    60   ~ 0
RA2
Wire Wire Line
	7200 4900 7200 4800
Wire Wire Line
	6000 5200 6000 5400
Connection ~ 6000 5400
Wire Notes Line
	6900 5800 7900 5800
Wire Notes Line
	4100 4300 4100 2500
Wire Notes Line
	7900 2500 7900 4300
Wire Notes Line
	4100 5800 4100 4400
Wire Notes Line
	4100 4400 6800 4400
Wire Notes Line
	6800 4400 6800 5800
Wire Notes Line
	6800 5800 4100 5800
Wire Notes Line
	7900 5800 7900 4400
Wire Notes Line
	7900 4400 6900 4400
Wire Notes Line
	6900 4400 6900 5800
Wire Notes Line
	4100 2500 7900 2500
Wire Notes Line
	7900 4300 4100 4300
Wire Wire Line
	5200 4700 5200 5000
Wire Wire Line
	5200 5000 5100 5000
Wire Wire Line
	4400 4700 4400 5000
Wire Wire Line
	4400 5000 4500 5000
Connection ~ 5500 4800
Wire Wire Line
	7000 3100 7000 2800
Wire Wire Line
	7600 4800 7600 4900
Wire Wire Line
	5500 4700 5500 4800
Wire Wire Line
	6400 4800 6500 4800
Wire Wire Line
	6500 4700 6500 4800
Connection ~ 6500 4800
Wire Wire Line
	5600 5000 5500 5000
Connection ~ 5500 5000
Wire Wire Line
	6100 3300 6400 3300
Wire Wire Line
	6400 3300 6400 3100
Wire Wire Line
	6100 3500 6400 3500
Wire Wire Line
	6400 3700 6400 3500
Wire Wire Line
	6400 3500 7000 3500
Wire Wire Line
	7000 3500 7000 3300
Wire Wire Line
	6000 5400 6000 5500
Wire Wire Line
	6000 5400 6500 5400
Wire Wire Line
	5500 4800 5600 4800
Wire Wire Line
	5500 4800 5500 5000
Wire Wire Line
	6500 4800 6500 5100
Wire Wire Line
	5500 5400 6000 5400
Wire Wire Line
	5500 5000 5500 5100
$Comp
L beacon-rescue:R_Small R3
U 1 1 5BAB3F29
P 7000 3800
F 0 "R3" H 6941 3846 50  0000 R CNN
F 1 "13K" H 6941 3755 50  0000 R CNN
F 2 "Resistor_SMD:R_0603_1608Metric" H 7000 3800 50  0001 C CNN
F 3 "" H 7000 3800 50  0001 C CNN
	1    7000 3800
	-1   0    0    -1  
$EndComp
$Comp
L beacon-rescue:R_Small R4
U 1 1 5BAB4F2F
P 7600 5000
F 0 "R4" H 7659 5046 50  0000 L CNN
F 1 "1M" H 7659 4955 50  0000 L CNN
F 2 "Resistor_SMD:R_0603_1608Metric" H 7600 5000 50  0001 C CNN
F 3 "" H 7600 5000 50  0001 C CNN
	1    7600 5000
	1    0    0    -1  
$EndComp
$Comp
L beacon-rescue:R_Small R2
U 1 1 5BAB5076
P 7000 3200
F 0 "R2" H 7059 3246 50  0000 L CNN
F 1 "43K" H 7059 3155 50  0000 L CNN
F 2 "Resistor_SMD:R_0603_1608Metric" H 7000 3200 50  0001 C CNN
F 3 "" H 7000 3200 50  0001 C CNN
	1    7000 3200
	1    0    0    -1  
$EndComp
$Comp
L beacon-rescue:R_Small R5
U 1 1 5BAB5181
P 7200 5200
F 0 "R5" H 7259 5246 50  0000 L CNN
F 1 "10" H 7259 5155 50  0000 L CNN
F 2 "Resistor_SMD:R_0603_1608Metric" H 7200 5200 50  0001 C CNN
F 3 "" H 7200 5200 50  0001 C CNN
	1    7200 5200
	1    0    0    -1  
$EndComp
$Comp
L beacon-rescue:LED_Small D3
U 1 1 5BAB8E19
P 7200 5000
F 0 "D3" V 7246 4932 50  0000 R CNN
F 1 "940nm" V 7155 4932 50  0000 R CNN
F 2 "LED_SMD:LED_0603_1608Metric" V 7200 5000 50  0001 C CNN
F 3 "" V 7200 5000 50  0001 C CNN
	1    7200 5000
	0    -1   -1   0   
$EndComp
$Comp
L beacon-rescue:D_Zener_Small D1
U 1 1 5BAB90A7
P 6400 3800
F 0 "D1" V 6354 3868 50  0000 L CNN
F 1 "1V8" V 6445 3868 50  0000 L CNN
F 2 "Diode_SMD:D_SOD-523" V 6400 3800 50  0001 C CNN
F 3 "" V 6400 3800 50  0001 C CNN
	1    6400 3800
	0    1    1    0   
$EndComp
$Comp
L power:GND #PWR0101
U 1 1 5BAD037F
P 6400 4000
F 0 "#PWR0101" H 6400 3750 50  0001 C CNN
F 1 "GND" H 6405 3827 50  0000 C CNN
F 2 "" H 6400 4000 50  0001 C CNN
F 3 "" H 6400 4000 50  0001 C CNN
	1    6400 4000
	1    0    0    -1  
$EndComp
$Comp
L Connector:Conn_01x01_Male J2
U 1 1 5BAD07E6
P 4400 4500
F 0 "J2" V 4460 4540 50  0000 L CNN
F 1 "L" V 4551 4540 50  0000 L CNN
F 2 "bcan:Pad_Length10mm_Width3.5mm" H 4400 4500 50  0001 C CNN
F 3 "~" H 4400 4500 50  0001 C CNN
	1    4400 4500
	0    1    1    0   
$EndComp
$Comp
L Connector:Conn_01x01_Male J1
U 1 1 5BAD0929
P 5200 4500
F 0 "J1" V 5260 4540 50  0000 L CNN
F 1 "R" V 5351 4540 50  0000 L CNN
F 2 "bcan:Pad_Length10mm_Width3.5mm" H 5200 4500 50  0001 C CNN
F 3 "~" H 5200 4500 50  0001 C CNN
	1    5200 4500
	0    1    1    0   
$EndComp
$Comp
L Device:D_Bridge_-AA+ D2
U 1 1 5BAD0C6D
P 4800 5000
F 0 "D2" V 4650 5500 50  0000 R CNN
F 1 "BAS4002A" V 4550 5500 50  0000 R CNN
F 2 "Package_TO_SOT_SMD:SOT-143" H 4800 5000 50  0001 C CNN
F 3 "~" H 4800 5000 50  0001 C CNN
	1    4800 5000
	0    -1   -1   0   
$EndComp
$Comp
L beacon-rescue:C_Small C2
U 1 1 5BAD1DF4
P 5500 5200
F 0 "C2" H 5592 5246 50  0000 L CNN
F 1 "10u" H 5592 5155 50  0000 L CNN
F 2 "Capacitor_SMD:C_0805_2012Metric" H 5500 5200 50  0001 C CNN
F 3 "" H 5500 5200 50  0001 C CNN
	1    5500 5200
	1    0    0    -1  
$EndComp
$Comp
L beacon-rescue:R_Small R1
U 1 1 5BAD2582
P 6400 3000
F 0 "R1" H 6459 3046 50  0000 L CNN
F 1 "10K" H 6459 2955 50  0000 L CNN
F 2 "Resistor_SMD:R_0603_1608Metric" H 6400 3000 50  0001 C CNN
F 3 "" H 6400 3000 50  0001 C CNN
	1    6400 3000
	1    0    0    -1  
$EndComp
$Comp
L power:+1V8 #PWR0103
U 1 1 5BAD26EE
P 5500 2800
F 0 "#PWR0103" H 5500 2650 50  0001 C CNN
F 1 "+1V8" H 5515 2973 50  0000 C CNN
F 2 "" H 5500 2800 50  0001 C CNN
F 3 "" H 5500 2800 50  0001 C CNN
	1    5500 2800
	1    0    0    -1  
$EndComp
$Comp
L power:+1V8 #PWR0104
U 1 1 5BAD2771
P 6400 2800
F 0 "#PWR0104" H 6400 2650 50  0001 C CNN
F 1 "+1V8" H 6415 2973 50  0000 C CNN
F 2 "" H 6400 2800 50  0001 C CNN
F 3 "" H 6400 2800 50  0001 C CNN
	1    6400 2800
	1    0    0    -1  
$EndComp
$Comp
L power:GND #PWR0105
U 1 1 5BAD27FA
P 5500 4000
F 0 "#PWR0105" H 5500 3750 50  0001 C CNN
F 1 "GND" H 5505 3827 50  0000 C CNN
F 2 "" H 5500 4000 50  0001 C CNN
F 3 "" H 5500 4000 50  0001 C CNN
	1    5500 4000
	1    0    0    -1  
$EndComp
$Comp
L beacon-rescue:C_Small C3
U 1 1 5BAD28B1
P 6500 5200
F 0 "C3" H 6592 5246 50  0000 L CNN
F 1 "1u" H 6592 5155 50  0000 L CNN
F 2 "Capacitor_SMD:C_0805_2012Metric" H 6500 5200 50  0001 C CNN
F 3 "" H 6500 5200 50  0001 C CNN
	1    6500 5200
	1    0    0    -1  
$EndComp
$Comp
L Connector:TestPoint TP6
U 1 1 5BAD3171
P 6400 3300
F 0 "TP6" V 6354 3488 50  0000 L CNN
F 1 "~MCLR" V 6445 3488 50  0000 L CNN
F 2 "TestPoint:TestPoint_Pad_D1.5mm" H 6600 3300 50  0001 C CNN
F 3 "~" H 6600 3300 50  0001 C CNN
	1    6400 3300
	0    1    1    0   
$EndComp
$Comp
L Connector:TestPoint TP5
U 1 1 5BAD3223
P 7600 2800
F 0 "TP5" V 7554 2988 50  0000 L CNN
F 1 "+1V8" V 7645 2988 50  0000 L CNN
F 2 "TestPoint:TestPoint_Pad_D1.5mm" H 7800 2800 50  0001 C CNN
F 3 "~" H 7800 2800 50  0001 C CNN
	1    7600 2800
	-1   0    0    1   
$EndComp
$Comp
L Connector:TestPoint TP2
U 1 1 5BAD3253
P 7600 4000
F 0 "TP2" V 7554 4188 50  0000 L CNN
F 1 "GND" V 7645 4188 50  0000 L CNN
F 2 "TestPoint:TestPoint_Pad_D1.5mm" H 7800 4000 50  0001 C CNN
F 3 "~" H 7800 4000 50  0001 C CNN
	1    7600 4000
	1    0    0    -1  
$EndComp
$Comp
L Connector:TestPoint TP1
U 1 1 5BAD3289
P 4700 3300
F 0 "TP1" V 4654 3488 50  0000 L CNN
F 1 "RA0" V 4745 3488 50  0000 L CNN
F 2 "TestPoint:TestPoint_Pad_D1.5mm" H 4900 3300 50  0001 C CNN
F 3 "~" H 4900 3300 50  0001 C CNN
	1    4700 3300
	0    -1   -1   0   
$EndComp
$Comp
L Connector:TestPoint TP3
U 1 1 5BAD32BD
P 4700 3500
F 0 "TP3" V 4654 3688 50  0000 L CNN
F 1 "RA1" V 4745 3688 50  0000 L CNN
F 2 "TestPoint:TestPoint_Pad_D1.5mm" H 4900 3500 50  0001 C CNN
F 3 "~" H 4900 3500 50  0001 C CNN
	1    4700 3500
	0    -1   -1   0   
$EndComp
$Comp
L Connector:TestPoint TP4
U 1 1 5BAD32F3
P 7000 3500
F 0 "TP4" V 6954 3688 50  0000 L CNN
F 1 "RA2" V 7045 3688 50  0000 L CNN
F 2 "TestPoint:TestPoint_Pad_D1.5mm" H 7200 3500 50  0001 C CNN
F 3 "~" H 7200 3500 50  0001 C CNN
	1    7000 3500
	0    1    1    0   
$EndComp
$Comp
L bcan:TPS70950DBV U2
U 1 1 5BAD36D7
P 6000 4900
F 0 "U2" H 6000 5287 60  0000 C CNN
F 1 "AP2204K-1.8" H 6000 5181 60  0000 C CNN
F 2 "Package_TO_SOT_SMD:SOT-23-5" H 6000 4900 60  0001 C CNN
F 3 "" H 6000 4900 60  0001 C CNN
	1    6000 4900
	1    0    0    -1  
$EndComp
$Comp
L MCU_Microchip_PIC10:PIC10F322-IOT U1
U 1 1 5BAD3C3F
P 5500 3400
F 0 "U1" H 5150 3850 50  0000 C CNN
F 1 "PIC10LF322-IOT" H 5900 3850 50  0000 C CNN
F 2 "Package_TO_SOT_SMD:SOT-23-6" H 5550 4050 50  0001 L CIN
F 3 "http://ww1.microchip.com/downloads/en/DeviceDoc/41585A.pdf" H 5500 3400 50  0001 C CNN
	1    5500 3400
	1    0    0    -1  
$EndComp
$Comp
L power:+1V8 #PWR0106
U 1 1 5BAD3D87
P 6500 4700
F 0 "#PWR0106" H 6500 4550 50  0001 C CNN
F 1 "+1V8" H 6515 4873 50  0000 C CNN
F 2 "" H 6500 4700 50  0001 C CNN
F 3 "" H 6500 4700 50  0001 C CNN
	1    6500 4700
	1    0    0    -1  
$EndComp
$Comp
L power:GND #PWR0107
U 1 1 5BAD3E0C
P 6000 5500
F 0 "#PWR0107" H 6000 5250 50  0001 C CNN
F 1 "GND" H 6005 5327 50  0000 C CNN
F 2 "" H 6000 5500 50  0001 C CNN
F 3 "" H 6000 5500 50  0001 C CNN
	1    6000 5500
	1    0    0    -1  
$EndComp
$Comp
L power:VCC #PWR0108
U 1 1 5BAD3EC2
P 5500 4700
F 0 "#PWR0108" H 5500 4550 50  0001 C CNN
F 1 "VCC" H 5517 4873 50  0000 C CNN
F 2 "" H 5500 4700 50  0001 C CNN
F 3 "" H 5500 4700 50  0001 C CNN
	1    5500 4700
	1    0    0    -1  
$EndComp
$Comp
L power:+1V8 #PWR0109
U 1 1 5BAD45F0
P 7600 2800
F 0 "#PWR0109" H 7600 2650 50  0001 C CNN
F 1 "+1V8" H 7615 2973 50  0000 C CNN
F 2 "" H 7600 2800 50  0001 C CNN
F 3 "" H 7600 2800 50  0001 C CNN
	1    7600 2800
	1    0    0    -1  
$EndComp
$Comp
L power:GND #PWR0110
U 1 1 5BAD469A
P 7600 4000
F 0 "#PWR0110" H 7600 3750 50  0001 C CNN
F 1 "GND" H 7605 3827 50  0000 C CNN
F 2 "" H 7600 4000 50  0001 C CNN
F 3 "" H 7600 4000 50  0001 C CNN
	1    7600 4000
	1    0    0    -1  
$EndComp
Wire Wire Line
	4900 3300 4700 3300
Wire Wire Line
	4900 3500 4700 3500
Text Label 4700 3300 0    60   ~ 0
RA0
Text Label 4700 3500 0    60   ~ 0
RA1
$Comp
L power:GND #PWR0102
U 1 1 5BAE24D0
P 7600 5100
F 0 "#PWR0102" H 7600 4850 50  0001 C CNN
F 1 "GND" H 7605 4927 50  0000 C CNN
F 2 "" H 7600 5100 50  0001 C CNN
F 3 "" H 7600 5100 50  0001 C CNN
	1    7600 5100
	1    0    0    -1  
$EndComp
Wire Wire Line
	7200 5300 7200 5500
Wire Wire Line
	7200 4800 7600 4800
Wire Wire Line
	7200 4800 7200 4600
Connection ~ 7200 4800
Text Label 7200 4600 3    60   ~ 0
RA0
Connection ~ 6400 3500
Wire Wire Line
	7000 3500 7000 3700
Connection ~ 7000 3500
Wire Wire Line
	7000 3900 7000 4000
Connection ~ 6400 3300
Wire Wire Line
	6400 2900 6400 2800
Wire Wire Line
	6400 3900 6400 4000
$Comp
L power:GND #PWR0111
U 1 1 5BCC8543
P 7000 4000
F 0 "#PWR0111" H 7000 3750 50  0001 C CNN
F 1 "GND" H 7005 3827 50  0000 C CNN
F 2 "" H 7000 4000 50  0001 C CNN
F 3 "" H 7000 4000 50  0001 C CNN
	1    7000 4000
	1    0    0    -1  
$EndComp
$Comp
L power:VCC #PWR0112
U 1 1 5BCD422F
P 4800 4700
F 0 "#PWR0112" H 4800 4550 50  0001 C CNN
F 1 "VCC" H 4817 4873 50  0000 C CNN
F 2 "" H 4800 4700 50  0001 C CNN
F 3 "" H 4800 4700 50  0001 C CNN
	1    4800 4700
	1    0    0    -1  
$EndComp
$Comp
L power:GND #PWR0113
U 1 1 5BCD4262
P 4800 5300
F 0 "#PWR0113" H 4800 5050 50  0001 C CNN
F 1 "GND" H 4805 5127 50  0000 C CNN
F 2 "" H 4800 5300 50  0001 C CNN
F 3 "" H 4800 5300 50  0001 C CNN
	1    4800 5300
	1    0    0    -1  
$EndComp
Wire Wire Line
	6500 5400 6500 5300
Wire Wire Line
	5500 5300 5500 5400
$Comp
L beacon-rescue:C_Small C1
U 1 1 5BCDAB4C
P 4600 2900
F 0 "C1" H 4692 2946 50  0000 L CNN
F 1 "100n" H 4692 2855 50  0000 L CNN
F 2 "Capacitor_SMD:C_0603_1608Metric" H 4600 2900 50  0001 C CNN
F 3 "" H 4600 2900 50  0001 C CNN
	1    4600 2900
	1    0    0    -1  
$EndComp
$Comp
L power:+1V8 #PWR0114
U 1 1 5BCDAE39
P 4600 2800
F 0 "#PWR0114" H 4600 2650 50  0001 C CNN
F 1 "+1V8" H 4615 2973 50  0000 C CNN
F 2 "" H 4600 2800 50  0001 C CNN
F 3 "" H 4600 2800 50  0001 C CNN
	1    4600 2800
	1    0    0    -1  
$EndComp
$Comp
L power:GND #PWR0115
U 1 1 5BCDAE6E
P 4600 3000
F 0 "#PWR0115" H 4600 2750 50  0001 C CNN
F 1 "GND" H 4605 2827 50  0000 C CNN
F 2 "" H 4600 3000 50  0001 C CNN
F 3 "" H 4600 3000 50  0001 C CNN
	1    4600 3000
	1    0    0    -1  
$EndComp
$Comp
L power:PWR_FLAG #FLG0101
U 1 1 5BCDD8C9
P 5500 4800
F 0 "#FLG0101" H 5500 4875 50  0001 C CNN
F 1 "PWR_FLAG" V 5500 4928 50  0001 L CNN
F 2 "" H 5500 4800 50  0001 C CNN
F 3 "~" H 5500 4800 50  0001 C CNN
	1    5500 4800
	0    -1   -1   0   
$EndComp
$Comp
L power:PWR_FLAG #FLG0102
U 1 1 5BCDDAE8
P 5500 5400
F 0 "#FLG0102" H 5500 5475 50  0001 C CNN
F 1 "PWR_FLAG" V 5500 5528 50  0001 L CNN
F 2 "" H 5500 5400 50  0001 C CNN
F 3 "~" H 5500 5400 50  0001 C CNN
	1    5500 5400
	0    -1   -1   0   
$EndComp
Connection ~ 5500 5400
$EndSCHEMATC
